Imports – ssm4epi
…
            mutate(ags_state = as.integer(ags_state)), 
        by=c("c"="ags_state", "date" = "date")
    )  %>%
    filter(c == 1) %>%
    filter(date >= ymd('2021-01-16'), date <= ymd('2021-12-11')) %>%
    {print(.);.} %>%
    ggplot(aes(date, `50.0 %`)) +
    geom_line(aes(color=model)) +
    geom_line(aes(date, cases, linetype = 'RKI')) +
    geom_ribbon(aes(date, ymin=`2.5 %`, ymax=`97.5 %`, fill=model), alpha=0.2) +
    facet_wrap(~model, ncol=1) +
    scale_y_log10() +
    scale_linetype_manual(values=c('RKI'='dashed'))

# A tibble: 186 × 27
       c date       `1.0 %` `2.5 %` `5.0 %` `10.0 %` `15.0 %` `20.0 %` `25.0 %`
   <dbl> <date>       <dbl>   <dbl>   <dbl>    <dbl>    <dbl>    <dbl>    <dbl>
 1     1 2021-01-16    1512    1675    1825     2009     2140     2249     2344
 2     1 2021-01-23    1506    1639    1761     1908     2011     2096     2171
 3     1 2021-01-30    1584    1725    1853     2009     2119     2209     2289
 4     1 2021-02-06    1667    1778    1877     1995     2078     2145     2204
 5     1 2021-02-13    1312    1393    1465     1551     1611     1659     1702
 6     1 2021-02-20    1216    1289    1354     1432     1485     1529     1568
 7     1 2021-02-27     945    1013    1074     1147     1198     1240     1277
 8     1 2021-03-06     951    1018    1077     1149     1199     1240     1275
 9     1 2021-03-13     976    1022    1062     1109     1142     1169     1192
10     1 2021-03-20    1070    1121    1167     1220     1258     1288     1314
# ℹ 176 more rows
# ℹ 18 more variables: `30.0 %` <dbl>, `35.0 %` <dbl>, `40.0 %` <dbl>,
#   `45.0 %` <dbl>, `50.0 %` <dbl>, `55.0 %` <dbl>, `60.0 %` <dbl>,
#   `65.0 %` <dbl>, `70.0 %` <dbl>, `75.0 %` <dbl>, `80.0 %` <dbl>,
#   `85.0 %` <dbl>, `90.0 %` <dbl>, `95.0 %` <dbl>, `97.5 %` <dbl>,
#   `99.0 %` <dbl>, model <chr>, cases <dbl>
…
